Health metrics and the spread of infectious diseases - 3 Metrics components
…
xmart_yrs <- xmart_yrs[-1,]%>%
  janitor::clean_names()%>%
  pivot_longer(cols=3:17,names_to="years",values_to="values")%>%
  mutate(values=as.numeric(values))

xmart_yrs %>% names

[1] "x1"     "x2"     "years"  "values"

xmart_yrs

# A tibble: 1,995 × 4
   x1                                                   x2         years  values
   <chr>                                                <chr>      <chr>   <dbl>
 1 nMx - age-specific death rate between ages x and x+n &lt;1 year x2019… 0.0478
 2 nMx - age-specific death rate between ages x and x+n &lt;1 year x2019… 0.0513
 3 nMx - age-specific death rate between ages x and x+n &lt;1 year x2019… 0.0441
 4 nMx - age-specific death rate between ages x and x+n &lt;1 year x2015… 0.0566
 5 nMx - age-specific death rate between ages x and x+n &lt;1 year x2015… 0.0602
 6 nMx - age-specific death rate between ages x and x+n &lt;1 year x2015… 0.0527
 7 nMx - age-specific death rate between ages x and x+n &lt;1 year x2010… 0.0675
 8 nMx - age-specific death rate between ages x and x+n &lt;1 year x2010… 0.0723
 9 nMx - age-specific death rate between ages x and x+n &lt;1 year x2010… 0.0625
10 nMx - age-specific death rate between ages x and x+n &lt;1 year x2005… 0.0822
# … with 1,985 more rows
…
